5. Shared Variant Analysis
…
## # A tibble: 21 x 8
## # Groups:   POS, REF, ALT, EFFECT, GENE, AA_CHANGE, Caller [21]
##      POS REF   ALT   EFFECT     GENE   AA_CHANGE  Caller      n
##    <dbl> <chr> <chr> <chr>      <chr>  <chr>      <chr>   <int>
##  1  4229 A     C     missense   ORF1ab T1322P     pysam       2
##  2  4229 A     C     Missense   ORF1ab Thr1322Pro lofreq      4
##  3  4229 A     C     Missense   ORF1ab Thr1322Pro varscan     3
##  4  4229 A     C     Missense   <NA>   T-P        ivar        4
##  5  9502 C     T     synonymous ORF1a  A3079A     pysam       3
##  6  9502 C     T     Synonymous ORF1ab Ala3079Ala lofreq      7
##  7  9502 C     T     Synonymous ORF1ab Ala3079Ala varscan     5
##  8  9502 C     T     Synonymous <NA>   A-A        ivar        8
##  9 11083 T     G     Missense   ORF1ab Phe3606Leu lofreq     13
## 10 14335 G     T     missense   ORF1ab V4691F     pysam       6
## #  with 11 more rows
…
