Replicate Comparison
…
It seems like Ct value doesnt correlate particularly well with the average difference between variant allele frequencies. There is a more clear relationship between mean depth and the average difference in allele frequencies.

Shared Variants

## # A tibble: 44 x 2
## # Groups:   SNP.one [44]
##    SNP.one      n
##    <chr>    <int>
##  1 C7564T      14
##  2 G28376T     14
##  3 A4229C      13
##  4 C28214CT    13
##  5 C6696CT     12
##  6 T18402A     11
##  7 C9502T       9
##  8 C11074CT     7
##  9 C11812CA     7
## 10 C26124T      7
## #  with 34 more rows

## # A tibble: 40 x 2
## # Groups:   SNP.one [40]
##    SNP.one      n
##    <chr>    <int>
##  1 A4229C      13
##  2 C28214CT    13
##  3 C6696CT     12
##  4 T18402A     11
##  5 C9502T       9
##  6 C11074CT     7
##  7 C11812CA     7
##  8 C26124T      7
##  9 C29051CA     7
## 10 C19983CT     6
## #  with 30 more rows
